%YAML 1.1
%TAG !u! tag:unity3d.com,2011:
--- !u!114 &11400000
MonoBehaviour:
  m_ObjectHideFlags: 0
  m_CorrespondingSourceObject: {fileID: 0}
  m_PrefabInstance: {fileID: 0}
  m_PrefabAsset: {fileID: 0}
  m_GameObject: {fileID: 0}
  m_Enabled: 1
  m_EditorHideFlags: 0
  m_Script: {fileID: 11500000, guid: 78b2425a2284af743826c689403a4924, type: 3}
  m_Name: Ramp4
  m_EditorClassIdentifier: 
  m_functionInfo: "// Made with Amplify Shader Editor\n// Available at the Unity
    Asset Store - http://u3d.as/y3X \n/*ASEBEGIN\nVersion=18921\n-1763;45;1589;922;259.5;203.5;1;True;True\nNode;AmplifyShaderEditor.FunctionInput;1;-435,-83.5;Inherit;False;Color1;3;0;False;1;0;FLOAT3;0,0,0;False;1;FLOAT3;0\nNode;AmplifyShaderEditor.FunctionInput;2;-445,8.5;Inherit;False;Color2;3;1;False;1;0;FLOAT3;0,0,0;False;1;FLOAT3;0\nNode;AmplifyShaderEditor.SimpleDivideOpNode;6;-243,218.5;Inherit;False;2;0;FLOAT;0;False;1;FLOAT;0;False;1;FLOAT;0\nNode;AmplifyShaderEditor.SaturateNode;7;-103,220.5;Inherit;False;1;0;FLOAT;0;False;1;FLOAT;0\nNode;AmplifyShaderEditor.SimpleSubtractOpNode;9;-91,324.5;Inherit;False;2;0;FLOAT;0;False;1;FLOAT;1;False;1;FLOAT;0\nNode;AmplifyShaderEditor.FunctionInput;4;-448,117.5;Inherit;False;F;1;4;False;1;0;FLOAT;0;False;1;FLOAT;0\nNode;AmplifyShaderEditor.FunctionInput;5;-445,227.5;Inherit;False;Bias;1;3;False;1;0;FLOAT;0;False;1;FLOAT;0\nNode;AmplifyShaderEditor.SaturateNode;11;250,320.5;Inherit;False;1;0;FLOAT;0;False;1;FLOAT;0\nNode;AmplifyShaderEditor.LerpOp;8;113,131.5;Inherit;False;3;0;FLOAT3;0,0,0;False;1;FLOAT3;0,0,0;False;2;FLOAT;0;False;1;FLOAT3;0\nNode;AmplifyShaderEditor.FunctionInput;3;280,216.5;Inherit;False;Color3;3;2;False;1;0;FLOAT3;0,0,0;False;1;FLOAT3;0\nNode;AmplifyShaderEditor.LerpOp;12;465,148.5;Inherit;False;3;0;FLOAT3;0,0,0;False;1;FLOAT3;0,0,0;False;2;FLOAT;0;False;1;FLOAT3;0\nNode;AmplifyShaderEditor.FunctionOutput;0;670,147;Inherit;False;True;-1;Output;0;False;1;0;FLOAT3;0,0,0;False;1;FLOAT3;0\nWireConnection;6;0;4;0\nWireConnection;6;1;5;0\nWireConnection;7;0;6;0\nWireConnection;9;0;6;0\nWireConnection;11;0;9;0\nWireConnection;8;0;1;0\nWireConnection;8;1;2;0\nWireConnection;8;2;7;0\nWireConnection;12;0;8;0\nWireConnection;12;1;3;0\nWireConnection;12;2;11;0\nWireConnection;0;0;12;0\nASEEND*/\n//CHKSM=C6773E67AF748D820AEB742C1EC0F628E95FFB31"
  m_functionName: 
  m_description: 
  m_additionalIncludes:
    m_additionalIncludes: []
    m_outsideIncludes: []
  m_additionalPragmas:
    m_additionalPragmas: []
    m_outsidePragmas: []
  m_additionalDirectives:
    m_validData: 0
    m_isDirty: 0
    m_moduleName: ' Additional Directives'
    m_independentModule: 1
    m_customEdited: 0
    m_additionalDirectives: []
    m_shaderFunctionDirectives: []
    m_nativeDirectives: []
    m_nativeDirectivesIndex: -1
    m_nativeDirectivesFoldout: 0
    m_directivesSaveItems: []
  m_nodeCategory: 3
  m_customNodeCategory: 
  m_previewPosition: 0
  m_hidden: 0
  m_url: 
