%YAML 1.1
%TAG !u! tag:unity3d.com,2011:
--- !u!114 &11400000
MonoBehaviour:
  m_ObjectHideFlags: 0
  m_CorrespondingSourceObject: {fileID: 0}
  m_PrefabInstance: {fileID: 0}
  m_PrefabAsset: {fileID: 0}
  m_GameObject: {fileID: 0}
  m_Enabled: 1
  m_EditorHideFlags: 0
  m_Script: {fileID: 11500000, guid: 78b2425a2284af743826c689403a4924, type: 3}
  m_Name: TriplanarParallax
  m_EditorClassIdentifier: 
  m_functionInfo: "// Made with Amplify Shader Editor\n// Available at the Unity
    Asset Store - http://u3d.as/y3X \n/*ASEBEGIN\nVersion=18921\n-1763;45;1589;922;-647.3628;98.90298;1.312043;True;True\nNode;AmplifyShaderEditor.DynamicAppendNode;32;794.9097,268.0616;Inherit;False;FLOAT2;4;0;FLOAT;0;False;1;FLOAT;1;False;2;FLOAT;0;False;3;FLOAT;0;False;1;FLOAT2;0\nNode;AmplifyShaderEditor.NegateNode;24;658.1559,666.9099;Inherit;False;1;0;FLOAT;0;False;1;FLOAT;0\nNode;AmplifyShaderEditor.SamplerNode;37;2233.931,-72.98283;Inherit;True;Property;_TextureSample0;Texture
    Sample 0;0;0;Create;True;0;0;0;False;0;False;-1;None;None;True;0;False;white;Auto;False;Object;-1;Auto;Texture2D;8;0;SAMPLER2D;;False;1;FLOAT2;0,0;False;2;FLOAT;0;False;3;FLOAT2;0,0;False;4;FLOAT2;0,0;False;5;FLOAT;1;False;6;FLOAT;0;False;7;SAMPLERSTATE;;False;5;COLOR;0;FLOAT;1;FLOAT;2;FLOAT;3;FLOAT;4\nNode;AmplifyShaderEditor.SimpleMultiplyOpNode;45;2809.9,190.3495;Inherit;False;2;2;0;FLOAT;0;False;1;COLOR;0,0,0,0;False;1;COLOR;0\nNode;AmplifyShaderEditor.SamplerNode;39;2232.699,541.3492;Inherit;True;Property;_TextureSample2;Texture
    Sample 2;0;0;Create;True;0;0;0;False;0;False;-1;None;None;True;0;False;white;Auto;False;Object;-1;Auto;Texture2D;8;0;SAMPLER2D;;False;1;FLOAT2;0,0;False;2;FLOAT;0;False;3;FLOAT2;0,0;False;4;FLOAT2;0,0;False;5;FLOAT;1;False;6;FLOAT;0;False;7;SAMPLERSTATE;;False;5;COLOR;0;FLOAT;1;FLOAT;2;FLOAT;3;FLOAT;4\nNode;AmplifyShaderEditor.BreakToComponentsNode;44;2534.299,107.1496;Inherit;False;FLOAT4;1;0;FLOAT4;0,0,0,0;False;16;FLOAT;0;FLOAT;1;FLOAT;2;FLOAT;3;FLOAT;4;FLOAT;5;FLOAT;6;FLOAT;7;FLOAT;8;FLOAT;9;FLOAT;10;FLOAT;11;FLOAT;12;FLOAT;13;FLOAT;14;FLOAT;15\nNode;AmplifyShaderEditor.SimpleMultiplyOpNode;42;2825.5,-87.85049;Inherit;False;2;2;0;FLOAT;0;False;1;COLOR;0,0,0,0;False;1;COLOR;0\nNode;AmplifyShaderEditor.RegisterLocalVarNode;18;-205.1712,-307.7581;Float;False;nSign;-1;True;1;0;FLOAT4;0,0,0,0;False;1;FLOAT4;0\nNode;AmplifyShaderEditor.BreakToComponentsNode;41;2536.898,-178.8505;Inherit;False;FLOAT4;1;0;FLOAT4;0,0,0,0;False;16;FLOAT;0;FLOAT;1;FLOAT;2;FLOAT;3;FLOAT;4;FLOAT;5;FLOAT;6;FLOAT;7;FLOAT;8;FLOAT;9;FLOAT;10;FLOAT;11;FLOAT;12;FLOAT;13;FLOAT;14;FLOAT;15\nNode;AmplifyShaderEditor.SimpleMultiplyOpNode;48;2811.199,527.0491;Inherit;False;2;2;0;FLOAT;0;False;1;COLOR;0,0,0,0;False;1;COLOR;0\nNode;AmplifyShaderEditor.SaturateNode;69;3262.109,174.4083;Inherit;False;1;0;COLOR;0,0,0,0;False;1;COLOR;0\nNode;AmplifyShaderEditor.SimpleAddOpNode;49;3075.499,167.1495;Inherit;False;3;3;0;COLOR;0,0,0,0;False;1;COLOR;0,0,0,0;False;2;COLOR;0,0,0,0;False;1;COLOR;0\nNode;AmplifyShaderEditor.SamplerNode;80;1448.365,1007.805;Inherit;True;Property;_TextureSample3;Texture
    Sample 3;1;0;Create;True;0;0;0;False;0;False;-1;None;None;True;0;False;white;Auto;False;Object;-1;Auto;Texture2D;8;0;SAMPLER2D;;False;1;FLOAT2;0,0;False;2;FLOAT;0;False;3;FLOAT2;0,0;False;4;FLOAT2;0,0;False;5;FLOAT;1;False;6;FLOAT;0;False;7;SAMPLERSTATE;;False;5;COLOR;0;FLOAT;1;FLOAT;2;FLOAT;3;FLOAT;4\nNode;AmplifyShaderEditor.GetLocalVarNode;43;2328.899,121.4496;Inherit;False;10;projNormal;1;0;OBJECT;;False;1;FLOAT4;0\nNode;AmplifyShaderEditor.DynamicAppendNode;25;798.3425,675.4985;Inherit;False;FLOAT2;4;0;FLOAT;0;False;1;FLOAT;1;False;2;FLOAT;0;False;3;FLOAT;0;False;1;FLOAT2;0\nNode;AmplifyShaderEditor.FunctionInput;29;796.0826,177.4027;Inherit;False;Tilling;1;2;False;1;0;FLOAT;0;False;1;FLOAT;0\nNode;AmplifyShaderEditor.WorldToObjectMatrix;56;-991.791,-149.1689;Inherit;False;0;1;FLOAT4x4;0\nNode;AmplifyShaderEditor.SimpleMultiplyOpNode;60;-179.791,26.33099;Inherit;False;2;2;0;FLOAT4x4;0,0,0,0,0,1,0,0,0,0,1,0,0,0,0,1;False;1;FLOAT4;0,0,0,0;False;1;FLOAT4;0\nNode;AmplifyShaderEditor.SimpleAddOpNode;66;1242.978,324.4423;Inherit;False;2;2;0;FLOAT2;0,0;False;1;FLOAT2;0,0;False;1;FLOAT2;0\nNode;AmplifyShaderEditor.SimpleAddOpNode;67;1240.978,596.4423;Inherit;False;2;2;0;FLOAT2;0,0;False;1;FLOAT2;0,0;False;1;FLOAT2;0\nNode;AmplifyShaderEditor.GetLocalVarNode;40;2323.699,-185.3506;Inherit;False;10;projNormal;1;0;OBJECT;;False;1;FLOAT4;0\nNode;AmplifyShaderEditor.FunctionInput;36;973.208,153.6615;Inherit;False;Map;9;1;False;1;0;SAMPLER2D;0.0;False;1;SAMPLER2D;0\nNode;AmplifyShaderEditor.GetLocalVarNode;47;2330.197,439.2995;Inherit;False;10;projNormal;1;0;OBJECT;;False;1;FLOAT4;0\nNode;AmplifyShaderEditor.RangedFloatNode;72;985.9211,925.0125;Inherit;False;Property;_ParallaxScale;Parallax
    Scale;0;0;Create;True;0;0;0;False;0;False;0;0;0;0;0;1;FLOAT;0\nNode;AmplifyShaderEditor.ParallaxMappingNode;78;1561.2,515.7889;Inherit;False;Planar;4;0;FLOAT2;0,0;False;1;FLOAT;0;False;2;FLOAT;0;False;3;FLOAT3;0,0,0;False;1;FLOAT2;0\nNode;AmplifyShaderEditor.FunctionInput;71;989.0865,826.8868;Inherit;False;Height;9;0;False;1;0;SAMPLER2D;0;False;1;SAMPLER2D;0\nNode;AmplifyShaderEditor.SamplerNode;38;2233.998,207.2495;Inherit;True;Property;_TextureSample1;Texture
    Sample 1;0;0;Create;True;0;0;0;False;0;False;-1;None;None;True;0;False;white;Auto;False;Object;-1;Auto;Texture2D;8;0;SAMPLER2D;;False;1;FLOAT2;0,0;False;2;FLOAT;0;False;3;FLOAT2;0,0;False;4;FLOAT2;0,0;False;5;FLOAT;1;False;6;FLOAT;0;False;7;SAMPLERSTATE;;False;5;COLOR;0;FLOAT;1;FLOAT;2;FLOAT;3;FLOAT;4\nNode;AmplifyShaderEditor.SimpleMultiplyOpNode;28;997.5435,-19.10669;Inherit;False;3;3;0;FLOAT2;0,0;False;1;FLOAT2;0,0;False;2;FLOAT;0;False;1;FLOAT2;0\nNode;AmplifyShaderEditor.BreakToComponentsNode;46;2535.597,424.9995;Inherit;False;FLOAT4;1;0;FLOAT4;0,0,0,0;False;16;FLOAT;0;FLOAT;1;FLOAT;2;FLOAT;3;FLOAT;4;FLOAT;5;FLOAT;6;FLOAT;7;FLOAT;8;FLOAT;9;FLOAT;10;FLOAT;11;FLOAT;12;FLOAT;13;FLOAT;14;FLOAT;15\nNode;AmplifyShaderEditor.GetLocalVarNode;19;256.008,198.2111;Inherit;False;18;nSign;1;0;OBJECT;;False;1;FLOAT4;0\nNode;AmplifyShaderEditor.Vector3Node;53;-1444.791,-71.16885;Float;False;Constant;_Vector0;Vector
    0;0;0;Create;True;0;0;0;False;0;False;0,0,1;0,0,0;0;4;FLOAT3;0;FLOAT;1;FLOAT;2;FLOAT;3\nNode;AmplifyShaderEditor.DynamicAppendNode;27;791.6916,-38.797;Inherit;False;FLOAT2;4;0;FLOAT;0;False;1;FLOAT;1;False;2;FLOAT;0;False;3;FLOAT;0;False;1;FLOAT2;0\nNode;AmplifyShaderEditor.WorldPosInputsNode;13;-520.2036,121.3734;Float;False;0;4;FLOAT3;0;FLOAT;1;FLOAT;2;FLOAT;3\nNode;AmplifyShaderEditor.BreakToComponentsNode;6;119.9671,-152.3921;Inherit;False;FLOAT4;1;0;FLOAT4;0,0,0,0;False;16;FLOAT;0;FLOAT;1;FLOAT;2;FLOAT;3;FLOAT;4;FLOAT;5;FLOAT;6;FLOAT;7;FLOAT;8;FLOAT;9;FLOAT;10;FLOAT;11;FLOAT;12;FLOAT;13;FLOAT;14;FLOAT;15\nNode;AmplifyShaderEditor.SimpleMultiplyOpNode;33;1009.91,263.0616;Inherit;False;3;3;0;FLOAT;0;False;1;FLOAT2;0,0;False;2;FLOAT2;0,0;False;1;FLOAT2;0\nNode;AmplifyShaderEditor.SimpleAddOpNode;7;433.0347,-155.0137;Inherit;False;3;3;0;FLOAT;0;False;1;FLOAT;0;False;2;FLOAT;0;False;1;FLOAT;0\nNode;AmplifyShaderEditor.FunctionInput;65;1010.978,393.4423;Inherit;False;UV
    Distortion;2;4;False;1;0;FLOAT2;0,0;False;1;FLOAT2;0\nNode;AmplifyShaderEditor.RegisterLocalVarNode;10;777.4004,-230.0613;Float;False;projNormal;-1;True;1;0;FLOAT4;0,0,0,0;False;1;FLOAT4;0\nNode;AmplifyShaderEditor.SignOpNode;11;-357.7899,-302.7814;Inherit;False;1;0;FLOAT4;0,0,0,0;False;1;FLOAT4;0\nNode;AmplifyShaderEditor.SimpleAddOpNode;68;1214.978,-14.55774;Inherit;False;2;2;0;FLOAT2;0,0;False;1;FLOAT2;0,0;False;1;FLOAT2;0\nNode;AmplifyShaderEditor.AbsOpNode;3;-362,-204.5;Inherit;False;1;0;FLOAT4;0,0,0,0;False;1;FLOAT4;0\nNode;AmplifyShaderEditor.DynamicAppendNode;63;-931.7359,-65.38047;Inherit;False;FLOAT4;4;0;FLOAT3;0,0,0;False;1;FLOAT;0;False;2;FLOAT;0;False;3;FLOAT;0;False;1;FLOAT4;0\nNode;AmplifyShaderEditor.DynamicAppendNode;22;800.1481,372.2895;Inherit;False;FLOAT2;4;0;FLOAT;0;False;1;FLOAT;1;False;2;FLOAT;0;False;3;FLOAT;0;False;1;FLOAT2;0\nNode;AmplifyShaderEditor.WorldNormalVector;51;-1222.791,-64.16885;Inherit;False;False;1;0;FLOAT3;0,0,0;False;4;FLOAT3;0;FLOAT;1;FLOAT;2;FLOAT;3\nNode;AmplifyShaderEditor.DynamicAppendNode;21;791.8388,62.17981;Inherit;False;FLOAT2;4;0;FLOAT;0;False;1;FLOAT;1;False;2;FLOAT;0;False;3;FLOAT;0;False;1;FLOAT2;0\nNode;AmplifyShaderEditor.DynamicAppendNode;34;798.9097,576.0616;Inherit;False;FLOAT2;4;0;FLOAT;0;False;1;FLOAT;1;False;2;FLOAT;0;False;3;FLOAT;0;False;1;FLOAT2;0\nNode;AmplifyShaderEditor.BreakToComponentsNode;26;449.2711,39.78528;Inherit;False;FLOAT4;1;0;FLOAT4;0,0,0,0;False;16;FLOAT;0;FLOAT;1;FLOAT;2;FLOAT;3;FLOAT;4;FLOAT;5;FLOAT;6;FLOAT;7;FLOAT;8;FLOAT;9;FLOAT;10;FLOAT;11;FLOAT;12;FLOAT;13;FLOAT;14;FLOAT;15\nNode;AmplifyShaderEditor.WorldToObjectMatrix;61;-437.791,26.33105;Inherit;False;0;1;FLOAT4x4;0\nNode;AmplifyShaderEditor.DynamicAppendNode;62;-325.9909,111.6311;Inherit;False;FLOAT4;4;0;FLOAT3;0,0,0;False;1;FLOAT;0;False;2;FLOAT;0;False;3;FLOAT;1;False;1;FLOAT4;0\nNode;AmplifyShaderEditor.SimpleMultiplyOpNode;35;1014.91,597.0616;Inherit;False;3;3;0;FLOAT;0;False;1;FLOAT2;0,0;False;2;FLOAT2;0,0;False;1;FLOAT2;0\nNode;AmplifyShaderEditor.SimpleMultiplyOpNode;57;-735.791,-94.16895;Inherit;False;2;2;0;FLOAT4x4;0,0,0,0,0,1,0,0,0,0,1,0,0,0,0,1;False;1;FLOAT4;0,0,0,0;False;1;FLOAT4;0\nNode;AmplifyShaderEditor.ViewDirInputsCoordNode;73;980.6454,1012.587;Inherit;False;Tangent;True;0;4;FLOAT3;0;FLOAT;1;FLOAT;2;FLOAT;3\nNode;AmplifyShaderEditor.PowerNode;4;-225,-177.5;Inherit;False;False;2;0;FLOAT4;0,0,0,0;False;1;FLOAT;0;False;1;FLOAT4;0\nNode;AmplifyShaderEditor.BreakToComponentsNode;20;455.078,203.1877;Inherit;False;FLOAT4;1;0;FLOAT4;0,0,0,0;False;16;FLOAT;0;FLOAT;1;FLOAT;2;FLOAT;3;FLOAT;4;FLOAT;5;FLOAT;6;FLOAT;7;FLOAT;8;FLOAT;9;FLOAT;10;FLOAT;11;FLOAT;12;FLOAT;13;FLOAT;14;FLOAT;15\nNode;AmplifyShaderEditor.ParallaxMappingNode;79;1548.08,204.8351;Inherit;False;Planar;4;0;FLOAT2;0,0;False;1;FLOAT;0;False;2;FLOAT;0;False;3;FLOAT3;0,0,0;False;1;FLOAT2;0\nNode;AmplifyShaderEditor.FunctionInput;2;-367,-118.5;Inherit;False;Falloff;1;3;False;1;0;FLOAT;3;False;1;FLOAT;0\nNode;AmplifyShaderEditor.SimpleDivideOpNode;8;604.1572,-223.8181;Inherit;False;2;0;FLOAT4;0,0,0,0;False;1;FLOAT;0;False;1;FLOAT4;0\nNode;AmplifyShaderEditor.ParallaxMappingNode;77;1521.838,761.14;Inherit;False;Planar;4;0;FLOAT2;0,0;False;1;FLOAT;0;False;2;FLOAT;0;False;3;FLOAT3;0,0,0;False;1;FLOAT2;0\nNode;AmplifyShaderEditor.FunctionOutput;0;3462.412,166.9801;Inherit;False;True;-1;Output;0;False;1;0;COLOR;0,0,0,0;False;1;COLOR;0\nWireConnection;32;0;26;0\nWireConnection;32;1;26;2\nWireConnection;24;0;20;2\nWireConnection;37;0;36;0\nWireConnection;37;1;79;0\nWireConnection;45;0;44;1\nWireConnection;45;1;38;0\nWireConnection;39;0;36;0\nWireConnection;39;1;77;0\nWireConnection;44;0;43;0\nWireConnection;42;0;41;0\nWireConnection;42;1;37;0\nWireConnection;18;0;11;0\nWireConnection;41;0;40;0\nWireConnection;48;0;46;2\nWireConnection;48;1;39;0\nWireConnection;69;0;49;0\nWireConnection;49;0;42;0\nWireConnection;49;1;45;0\nWireConnection;49;2;48;0\nWireConnection;80;0;71;0\nWireConnection;25;0;24;0\nWireConnection;60;0;61;0\nWireConnection;60;1;62;0\nWireConnection;66;0;33;0\nWireConnection;66;1;65;0\nWireConnection;67;0;65;0\nWireConnection;67;1;35;0\nWireConnection;78;0;66;0\nWireConnection;78;1;80;1\nWireConnection;78;2;72;0\nWireConnection;38;0;36;0\nWireConnection;38;1;78;0\nWireConnection;28;0;27;0\nWireConnection;28;1;21;0\nWireConnection;28;2;29;0\nWireConnection;46;0;47;0\nWireConnection;27;0;26;2\nWireConnection;27;1;26;1\nWireConnection;6;0;4;0\nWireConnection;33;0;29;0\nWireConnection;33;1;32;0\nWireConnection;33;2;22;0\nWireConnection;7;0;6;0\nWireConnection;7;1;6;1\nWireConnection;7;2;6;2\nWireConnection;10;0;8;0\nWireConnection;11;0;57;0\nWireConnection;68;0;28;0\nWireConnection;68;1;65;0\nWireConnection;3;0;57;0\nWireConnection;63;0;51;0\nWireConnection;22;0;20;1\nWireConnection;51;0;53;0\nWireConnection;21;0;20;0\nWireConnection;34;0;26;0\nWireConnection;34;1;26;1\nWireConnection;26;0;60;0\nWireConnection;62;0;13;0\nWireConnection;35;0;29;0\nWireConnection;35;1;34;0\nWireConnection;35;2;25;0\nWireConnection;57;0;56;0\nWireConnection;57;1;63;0\nWireConnection;4;0;3;0\nWireConnection;4;1;2;0\nWireConnection;20;0;19;0\nWireConnection;79;0;68;0\nWireConnection;79;1;80;1\nWireConnection;79;2;72;0\nWireConnection;8;0;4;0\nWireConnection;8;1;7;0\nWireConnection;77;0;67;0\nWireConnection;77;1;80;1\nWireConnection;77;2;72;0\nWireConnection;0;0;69;0\nASEEND*/\n//CHKSM=4BCF09740E7EB4436E98016FA4CEC8F691E87651"
  m_functionName: 
  m_description: 
  m_additionalIncludes:
    m_additionalIncludes: []
    m_outsideIncludes: []
  m_additionalPragmas:
    m_additionalPragmas: []
    m_outsidePragmas: []
  m_additionalDirectives:
    m_validData: 0
    m_isDirty: 0
    m_moduleName: ' Additional Directives'
    m_independentModule: 1
    m_customEdited: 0
    m_additionalDirectives: []
    m_shaderFunctionDirectives: []
    m_nativeDirectives: []
    m_nativeDirectivesIndex: -1
    m_nativeDirectivesFoldout: 0
    m_directivesSaveItems: []
  m_nodeCategory: 3
  m_customNodeCategory: 
  m_previewPosition: 0
  m_hidden: 0
  m_url: 
