%YAML 1.1
%TAG !u! tag:unity3d.com,2011:
--- !u!21 &2100000
Material:
  serializedVersion: 6
  m_ObjectHideFlags: 0
  m_CorrespondingSourceObject: {fileID: 0}
  m_PrefabInstance: {fileID: 0}
  m_PrefabAsset: {fileID: 0}
  m_Name: Thunderstorm_Atmopshere_03_B
  m_Shader: {fileID: 4800000, guid: 3e4215f4c57eb284b8d99fae19ad8f18, type: 3}
  m_ShaderKeywords: 
  m_LightmapFlags: 4
  m_EnableInstancingVariants: 1
  m_DoubleSidedGI: 0
  m_CustomRenderQueue: -1
  stringTagMap: {}
  disabledShaderPasses: []
  m_SavedProperties:
    serializedVersion: 3
    m_TexEnvs:
    - _AtmosphereSample:
        m_Texture: {fileID: 2800000, guid: e85c7b15423b01f43802d942f0d51b5e, type: 3}
        m_Scale: {x: 1, y: 1}
        m_Offset: {x: 0, y: 0}
    - _BumpMap:
        m_Texture: {fileID: 0}
        m_Scale: {x: 1, y: 1}
        m_Offset: {x: 0, y: 0}
    - _DetailAlbedoMap:
        m_Texture: {fileID: 0}
        m_Scale: {x: 1, y: 1}
        m_Offset: {x: 0, y: 0}
    - _DetailMask:
        m_Texture: {fileID: 0}
        m_Scale: {x: 1, y: 1}
        m_Offset: {x: 0, y: 0}
    - _DetailNormalMap:
        m_Texture: {fileID: 0}
        m_Scale: {x: 1, y: 1}
        m_Offset: {x: 0, y: 0}
    - _EmissionMap:
        m_Texture: {fileID: 0}
        m_Scale: {x: 1, y: 1}
        m_Offset: {x: 0, y: 0}
    - _MainTex:
        m_Texture: {fileID: 0}
        m_Scale: {x: 1, y: 1}
        m_Offset: {x: 0, y: 0}
    - _MetallicGlossMap:
        m_Texture: {fileID: 0}
        m_Scale: {x: 1, y: 1}
        m_Offset: {x: 0, y: 0}
    - _OcclusionMap:
        m_Texture: {fileID: 0}
        m_Scale: {x: 1, y: 1}
        m_Offset: {x: 0, y: 0}
    - _ParallaxMap:
        m_Texture: {fileID: 0}
        m_Scale: {x: 1, y: 1}
        m_Offset: {x: 0, y: 0}
    m_Floats:
    - _AlphaCutoff: 0.5
    - _BumpScale: 1
    - _Cutoff: 0.5
    - _DetailNormalMapScale: 1
    - _DstBlend: 0
    - _EdgeAttenuation: 1
    - _EdgeBoost: 8
    - _EdgeOffset: 0.95
    - _EdgePower: 1.47
    - _Exp: 8.08
    - _Float1: 1
    - _Float2: -0
    - _Float3: 1
    - _Float4: -0.09
    - _GlossMapScale: 1
    - _Glossiness: 0.5
    - _GlossyReflections: 1
    - _GlowFactor: 6.5
    - _GlowIntensity: 2
    - _GlowOffset: -2.78
    - _InRingFactor: 5.27
    - _Intensity: 1
    - _LightExp: 5.53
    - _LightMax: 7.31
    - _LightMultiply: 0.71
    - _Metallic: 0
    - _Mode: 0
    - _OcclusionStrength: 1
    - _OffsetInnerRing: -3.39
    - _Parallax: 0.02
    - _RimAttenuation: 0.03
    - _RimBoost: 0.5
    - _RimOffset: 0.97
    - _RimPower: 1.44
    - _ScatteringFactor: 2.46
    - _ScatteringIntensity: 2
    - _ScatteringOffset: -1.7
    - _ScatteringRingOffset: 1.4
    - _SmoothnessTextureChannel: 0
    - _SpecularHighlights: 1
    - _SrcBlend: 1
    - _UVOffset: 0.03
    - _UVSec: 0
    - _VertexOffset: 0.19
    - _WrapMax: 1.79
    - _WrapMin: 0.32
    - _ZWrite: 1
    - __dirty: 0
    - _max: 0
    - _ndl: 0
    m_Colors:
    - _Color: {r: 1, g: 1, b: 1, a: 1}
    - _EdgeTint: {r: 0.026816605, g: 0.086460434, b: 0.22794116, a: 1}
    - _EmissionColor: {r: 0, g: 0, b: 0, a: 1}
    - _GlowColor: {r: 1, g: 0.5294118, b: 0.65598387, a: 1}
    - _InColor: {r: 0.0735294, g: 0.04487455, b: 0.04487455, a: 0}
    - _RimTint: {r: 0.07958476, g: 0.1394791, b: 0.16911763, a: 1}
    - _ScatteringColor: {r: 1, g: 0.71323526, b: 0.71323526, a: 1}
    - _Vector0: {r: 0, g: -0.48, b: 0, a: 0}
