%YAML 1.1
%TAG !u! tag:unity3d.com,2011:
--- !u!21 &2100000
Material:
  serializedVersion: 6
  m_ObjectHideFlags: 0
  m_CorrespondingSourceObject: {fileID: 0}
  m_PrefabInstance: {fileID: 0}
  m_PrefabAsset: {fileID: 0}
  m_Name: Terrestrial_Atmopshere_01_A
  m_Shader: {fileID: 4800000, guid: 3e4215f4c57eb284b8d99fae19ad8f18, type: 3}
  m_ShaderKeywords: 
  m_LightmapFlags: 4
  m_EnableInstancingVariants: 0
  m_DoubleSidedGI: 0
  m_CustomRenderQueue: -1
  stringTagMap: {}
  disabledShaderPasses: []
  m_SavedProperties:
    serializedVersion: 3
    m_TexEnvs:
    - _AtmosphereSample:
        m_Texture: {fileID: 2800000, guid: e85c7b15423b01f43802d942f0d51b5e, type: 3}
        m_Scale: {x: 1, y: 1}
        m_Offset: {x: 0, y: 0}
    - _BumpMap:
        m_Texture: {fileID: 0}
        m_Scale: {x: 1, y: 1}
        m_Offset: {x: 0, y: 0}
    - _DetailAlbedoMap:
        m_Texture: {fileID: 0}
        m_Scale: {x: 1, y: 1}
        m_Offset: {x: 0, y: 0}
    - _DetailMask:
        m_Texture: {fileID: 0}
        m_Scale: {x: 1, y: 1}
        m_Offset: {x: 0, y: 0}
    - _DetailNormalMap:
        m_Texture: {fileID: 0}
        m_Scale: {x: 1, y: 1}
        m_Offset: {x: 0, y: 0}
    - _EmissionMap:
        m_Texture: {fileID: 0}
        m_Scale: {x: 1, y: 1}
        m_Offset: {x: 0, y: 0}
    - _MainTex:
        m_Texture: {fileID: 0}
        m_Scale: {x: 1, y: 1}
        m_Offset: {x: 0, y: 0}
    - _MetallicGlossMap:
        m_Texture: {fileID: 0}
        m_Scale: {x: 1, y: 1}
        m_Offset: {x: 0, y: 0}
    - _OcclusionMap:
        m_Texture: {fileID: 0}
        m_Scale: {x: 1, y: 1}
        m_Offset: {x: 0, y: 0}
    - _ParallaxMap:
        m_Texture: {fileID: 0}
        m_Scale: {x: 1, y: 1}
        m_Offset: {x: 0, y: 0}
    - _Scattering:
        m_Texture: {fileID: 2800000, guid: e85c7b15423b01f43802d942f0d51b5e, type: 3}
        m_Scale: {x: 1, y: 1}
        m_Offset: {x: 0, y: 0}
    - _texcoord:
        m_Texture: {fileID: 0}
        m_Scale: {x: 1, y: 1}
        m_Offset: {x: 0, y: 0}
    m_Floats:
    - _AlphaCutoff: 0.5
    - _BumpScale: 1
    - _Cutoff: 0.5
    - _DetailNormalMapScale: 1
    - _DstBlend: 0
    - _EdgeAttenuation: 1
    - _EdgeBoost: 8
    - _EdgeOffset: 0.95
    - _EdgePower: 1.47
    - _Exp: 8.08
    - _Float0: 0.16
    - _Float1: 0.67
    - _Float2: 2
    - _Float3: 1
    - _Float4: -0.09
    - _GlossMapScale: 1
    - _Glossiness: 0.5
    - _GlossyReflections: 1
    - _GlowFactor: 2.13
    - _GlowIntensity: 2.77
    - _GlowOffset: -5.2
    - _InRingFactor: 5.27
    - _InnerRingFactor: 6.4
    - _InnerRingOffset: -2.9
    - _Intensity: 31.58
    - _LightExp: 5.53
    - _LightMax: 7.31
    - _LightMultiply: 0.31
    - _Metallic: 0
    - _Mode: 0
    - _OcclusionStrength: 1
    - _OffsetInnerRing: -3.39
    - _Parallax: 0.02
    - _RimAttenuation: 0.03
    - _RimBoost: 0.5
    - _RimOffset: 0.97
    - _RimPower: 1.44
    - _ScatteringFactor: 3.78
    - _ScatteringIntensity: 24.02
    - _ScatteringOffset: 0
    - _ScatteringRingOffset: 1.4
    - _SmoothnessTextureChannel: 0
    - _SpecularHighlights: 1
    - _SrcBlend: 1
    - _TessValue: 16
    - _UVOffset: -0.23
    - _UVSec: 0
    - _VertexOffset: 0.84
    - _WrapMax: 1.79
    - _WrapMin: 0.32
    - _ZWrite: 1
    - __dirty: 0
    - _max: 0
    - _ndl: 0
    m_Colors:
    - _BiasScalePow: {r: 0, g: 1, b: 5, a: 0}
    - _Color: {r: 0, g: 0.5177965, b: 1, a: 1}
    - _EdgeTint: {r: 0.026816605, g: 0.086460434, b: 0.22794116, a: 1}
    - _EmissionColor: {r: 0, g: 0, b: 0, a: 1}
    - _FresnelLoHi: {r: 0, g: 0, b: 0, a: 0}
    - _GlowColor: {r: 0.35640135, g: 0.50848645, b: 0.75735295, a: 1}
    - _InColor: {r: 0.0735294, g: 0.04487455, b: 0.04487455, a: 0}
    - _InnerRingColor: {r: 0.10849059, g: 0.62318325, b: 1, a: 0}
    - _RimTint: {r: 0.07958476, g: 0.1394791, b: 0.16911763, a: 1}
    - _ScatteingLoHi: {r: 0, g: 0, b: 0, a: 0}
    - _ScatteringColor: {r: 0.64705884, g: 0.89776874, b: 1, a: 1}
    - _Vector0: {r: 1.26, g: 0.85, b: 0, a: 0}
    - _Vector1: {r: 0, g: 1, b: 0, a: 0}
